<svg width="14" height="9" viewBox="0 0 14 9" fill="none" xmlns="http://www.w3.org/2000/svg">
<path d="M1.15234 1.45312L1.62109 1.00781C1.69922 0.914062 1.80078 0.84375 1.92578 0.796875C2.05078 0.734375 2.18359 0.703125 2.32422 0.703125C2.46484 0.703125 2.58984 0.734375 2.69922 0.796875C2.82422 0.84375 2.93359 0.914062 3.02734 1.00781L6.98828 4.96875L10.9727 1.00781C11.0664 0.914062 11.168 0.84375 11.2773 0.796875C11.4023 0.734375 11.5352 0.703125 11.6758 0.703125C11.8164 0.703125 11.9492 0.734375 12.0742 0.796875C12.1992 0.84375 12.3086 0.914062 12.4023 1.00781L12.8242 1.45312C12.918 1.54688 12.9883 1.65625 13.0352 1.78125C13.0977 1.89062 13.1289 2.01562 13.1289 2.15625C13.1289 2.29688 13.0977 2.42969 13.0352 2.55469C12.9883 2.67969 12.918 2.78125 12.8242 2.85938L7.71484 7.99219C7.62109 8.08594 7.51172 8.16406 7.38672 8.22656C7.26172 8.27344 7.13672 8.29688 7.01172 8.29688C6.87109 8.29688 6.73828 8.27344 6.61328 8.22656C6.48828 8.16406 6.37891 8.08594 6.28516 7.99219L1.15234 2.85938C1.07422 2.78125 1.00391 2.67969 0.941406 2.55469C0.894531 2.42969 0.871094 2.29688 0.871094 2.15625C0.871094 2.01562 0.894531 1.89062 0.941406 1.78125C1.00391 1.65625 1.07422 1.54688 1.15234 1.45312Z" fill="#555555"/>
</svg>
